{
	"deviceName": "Kelvin",
	"agents": [{
			"name": "EMS",
			"state": "stopped",
			"enabled": false,
			"services": [{
					"sname": "tw_luaScriptResourced.service",
					"state": "stopped",
					"enabled": false
				},
				{
					"sname": "tw_microServerd.service",
					"state": "stopped",
					"enabled": false
				}
			]
		},
		{
			"name": "MODBUS",
			"state": "stopped",
			"enabled": false,
			"services": [{
				"sname": "modbus.service",
				"state": "running",
				"enabled": false
			}]
		}
	]
}